﻿{
 "mongoconnection": "mongodb://localhost:27017/kmbi",
 "database": "kmbi"
}

 //{
 //  "mongoconnection": "mongodb+srv://dbdev:8yWRKkJuhx3bngxx@version3-mj3ao.mongodb.net/test",
 //  "database": "kmbi"
 //}
