﻿{
    "balanceSheetSettings": {
        "name": "Balance Sheet",
        "details":[
            {
                "name":"ASSETS",
                "details":[
                    {
                        "name":"Current Assets",
                        "details":[
                            {"name": "Cash and cash equivalents", "balanceYear": 2017, "balance": 0, "accountCodes": [101, 102, 103]},
                            {"name": "Marketable equity securities - net", "balanceYear": 2017, "balance": 0, "accountCodes": [104, 105]},
                            {"name": "Loans receivable - net", "balanceYear": 2017, "balance": 0, "accountCodes": [106, 108]},
                            {"name": "Interest receivable", "balanceYear": 2017, "balance": 0, "accountCodes": [107]},
                            {"name": "Other receivables - net", "balanceYear": 2017, "balance": 0, "accountCodes": [110, 111]},
                            {"name": "Other current assets", "balanceYear": 2017, "balance": 0, "accountCodes": [109, 112, 127]}
                        ]
                    },
                    {
                        "name":"Noncurrent Assets",
                        "details":[
                            {"name": "Available-for-sale (AFS) financial asset", "balanceYear": 2017, "balance": 0, "accountCodes": [113]},
                            {"name": "Restricted cash", "balanceYear": 2017, "balance": 0, "accountCodes": [128]},
                            {"name": "Property and Equipment", "balanceYear": 2017, "balance": 0, "accountCodes": [116, 117, 118, 119, 120, 121, 122, 0, 124]},
                            {"name": "Property to Affiliates", "balanceYear": 2017, "balance": 0, "accountCodes": [115]},
                            {"name": "Other noncurrent assets", "balanceYear": 2017, "balance": 0, "accountCodes": [125, 126, 129]}
                        ]
                    }
                ]
            },
            {
                "name":"LIABILITIES AND FUND BALANCE",
                "details":[
                    {
                        "name":"Current Liabilities",
                        "details":[
                            {"name": "Trade and other payables", "balanceYear": 2017, "balance": 0, "accountCodes": [201, 209]},
                            {"name": "Client's CBU", "balanceYear": 2017, "balance": 0, "accountCodes": [206]},
                            {"name": "Tax Payable", "balanceYear": 2017, "balance": 0, "accountCodes": [202]},
                            {"name": "MI/CGLI payables", "balanceYear": 2017, "balance": 0, "accountCodes": [203, 204, 205]},
                            {"name": "Unearned interest income", "balanceYear": 2017, "balance": 0, "accountCodes": [207]},
                            {"name": "Provision for contingencies", "balanceYear": 2017, "balance": 0, "accountCodes": [212]}
                        ]
                    },
                    {
                        "name":"Noncurrent Liabilities",
                        "details":[
                            {"name": "Deferred Tax Liability", "balanceYear": 2017, "balance": 0, "accountCodes": [213]},
                            {"name": "Retirement benefit liability", "balanceYear": 2017, "balance": 0, "accountCodes": [210]}
                        ]
                    },
                    {
                        "name":"Fund Balance",
                        "details":[
                            {"name": "Retained earnings", "balanceYear": 2017, "balance": 0, "accountCodes": [301]},
                            {"name": "Cumulative remeasurement gains on retirement benefit", "balanceYear": 2017, "balance": 0, "accountCodes":[302]},
                            {"name": "Fair Value Reserve on AFS Financial Asset", "balanceYear": 2017, "balance": 0, "accountCodes": [303]}
                        ]
                    }
                ]
            }
        ]
    },
    "incomeStatementSettings": {
        "name": "Income Statement",
        "details":[
            {
                "name":"REVENUE",
                "details":[
                    {
                        "name": "Gross income",
                        "details":[
                            {"name": "Interest income on loans receivable", "balanceYear": 2017, "balance": 0, "accountCodes": [401]},
                            {"name": "Service Income", "balanceYear": 2017, "balance": 0, "accountCodes": [402, 403, 404, 405]},
                            {"name": "Interest on Deposit and Placements", "balanceYear": 2017, "balance": 0, "accountCodes": [406]},
                            {"name": "Forex gain or loss", "balanceYear": 2017, "balance": 0, "accountCodes": [407]},
                            {"name": "Other Income", "balanceYear": 2017, "balance": 0, "accountCodes": [408]}
                        ]
                    },
                    {
                        "name": "Financial Costs",
                        "details":[
                            {"name": "Interest expense on Client's CBU", "balanceYear": 2017, "balance": 0, "accountCodes": [538, 539]}
                        ]
                    },
                    {
                        "name": "Bad debts expense",
                        "details":[
                            {"name": "Bad debts expense", "balanceYear": 2017, "balance": 0, "accountCodes": [541]}
                        ]
                    }
                ]
            },
            {
                "name":"EXPENSES",
                "details":[
                    {
                        "name": "Expenses",
                        "details":[
                            {"name": "Personnel costs", "balanceYear": 2017, "balance": 0, "accountCodes": [501, 502, 503, 508, 509, 510]},
                            {"name": "Outstation", "balanceYear": 2017, "balance": 0, "accountCodes": [504]},
                            {"name": "Fringe benefit", "balanceYear": 2017, "balance": 0, "accountCodes": [505, 506]},
                            {"name": "Retirement", "balanceYear": 2017, "balance": 0, "accountCodes": [511]},
                            {"name": "Outside services", "balanceYear": 2017, "balance": 0, "accountCodes": [513]},
                            {"name": "Professional fees", "balanceYear": 2017, "balance": 0, "accountCodes": [514]},
                            {"name": "Meetings, trainings and conferences", "balanceYear": 2017, "balance": 0, "accountCodes": [515, 516]},
                            {"name": "Transformation Expense", "balanceYear": 2017, "balance": 0, "accountCodes": [517]},
                            {"name": "Litigation", "balanceYear": 2017, "balance": 0, "accountCodes": [519]},
                            {"name": "Supplies", "balanceYear": 2017, "balance": 0, "accountCodes": [520, 521]},
                            {"name": "Utilities", "balanceYear": 2017, "balance": 0, "accountCodes": [524]},
                            {"name": "Communication", "balanceYear": 2017, "balance": 0, "accountCodes": [526]},
                            {"name": "Courier Charges", "balanceYear": 2017, "balance": 0, "accountCodes": [525]},
                            {"name": "Rental", "balanceYear": 2017, "balance": 0, "accountCodes": [529]},
                            {"name": "Insurance", "balanceYear": 2017, "balance": 0, "accountCodes": [530]},
                            {"name": "Transporation and travel", "balanceYear": 2017, "balance": 0, "accountCodes": [531, 532]},
                            {"name": "Taxes and licenses", "balanceYear": 2017, "balance": 0, "accountCodes": [534]},
                            {"name": "Repairs and maintenance", "balanceYear": 2017, "balance": 0, "accountCodes": [537]},
                            {"name": "Depreciation and amortization", "balanceYear": 2017, "balance": 0, "accountCodes": [542, 543]},
                            {"name": "Loss on Asset Write-Off", "balanceYear": 2017, "balance": 0, "accountCodes": [548]},
                            {"name": "Others", "balanceYear": 2017, "balance": 0, "accountCodes": [507, 512, 518, 522, 523, 527, 528, 533, 535, 536, 540, 546, 547]}
                        ]
                    }
                ]
            } 
        ]
    }
}